%YAML 1.1
%TAG !u! tag:unity3d.com,2011:
--- !u!1045 &1
EditorBuildSettings:
  m_ObjectHideFlags: 0
  serializedVersion: 2
  m_Scenes:
  - enabled: 1
    path: Assets/TheGame/Scenes/Globals.unity
    guid: ebb36c65ec832384db9a80806d9a6012
  - enabled: 1
    path: Assets/TheGame/Scenes/Szene2.unity
    guid: 6c17a646c99d00d4f9cd18e6a70359c3
  - enabled: 1
    path: Assets/TheGame/Scenes/Szene1.unity
    guid: b807ea5a4e582f6499e8a48d43d87ed0
  m_configObjects: {}
